…
**4. Your answer above doesn't tell the whole story since life expectancy varies by region. Make a summary that shows the min, mean, and max life expectancy by continent for all years represented in the data.**


```r
gapminder %>%
  mutate(year = as.factor(year)) %>%
  group_by(continent, year) %>%
  summarize(mean_life_exp = mean(life_exp, na.rm = T), 
            min_life_exp = min(life_exp, na.rm = T), 
            max_life_exp = max(life_exp, na.rm = T), .groups = "keep")
```

```
## # A tibble: 60 × 5
## # Groups:   continent, year [60]
##    continent year  mean_life_exp min_life_exp max_life_exp
##    <fct>     <fct>         <dbl>        <dbl>        <dbl>
##  1 Africa    1952           39.1         30           52.7
##  2 Africa    1957           41.3         31.6         58.1
##  3 Africa    1962           43.3         32.8         60.2
##  4 Africa    1967           45.3         34.1         61.6
##  5 Africa    1972           47.5         35.4         64.3
##  6 Africa    1977           49.6         36.8         67.1
##  7 Africa    1982           51.6         38.4         69.9
##  8 Africa    1987           53.3         39.9         71.9
##  9 Africa    1992           53.6         23.6         73.6
## 10 Africa    1997           53.6         36.1         74.8
## # ℹ 50 more rows
```
…
#Rename the columns to avoid any problems associated with their names being numeric:
colnames(gapminder_wide)[2] = "pop_1952"
colnames(gapminder_wide)[3] = "pop_2007"

#Add a column showing net population growth between 1952 and 2007:
gapminder_wide %>%
  mutate(net_pop_growth = pop_2007 - pop_1952) %>%
  arrange(desc(net_pop_growth))
```

```
## # A tibble: 142 × 4
##    country        pop_1952   pop_2007 net_pop_growth
##    <fct>             <int>      <int>          <int>
##  1 China         556263527 1318683096      762419569
##  2 India         372000000 1110396331      738396331
##  3 United States 157553000  301139947      143586947
##  4 Indonesia      82052000  223547000      141495000
##  5 Brazil         56602560  190010647      133408087
##  6 Pakistan       41346560  169270617      127924057
##  7 Bangladesh     46886859  150448339      103561480
##  8 Nigeria        33119096  135031164      101912068
##  9 Mexico         30144317  108700891       78556574
## 10 Philippines    22438691   91077287       68638596
## # ℹ 132 more rows
```
…
