…
In 2010, the pack size was recorded as 0. As there isn't an observation recorded for this pack in a later year, it might suggest the pack dissolved that year.

Problem 9. (5 points) Among the YNP wolf packs, which one has had the highest overall persistence `persisty1` for the years represented in the data? Look this pack up online and tell me what is unique about its behavior- specifically, what prey animals does this pack specialize on?  


```r
ynp %>%
  filter(persisty1==1) %>%
  group_by(pack) %>%
  summarize(max_persistence = sum(persisty1, na.rm = T)) %>%
  arrange(desc(max_persistence))
```

```
## # A tibble: 38 × 2
##    pack        max_persistence
##    <chr>                 <int>
##  1 mollies                  26
##  2 cougar                   20
##  3 yelldelta                18
##  4 druid                    13
##  5 leopold                  12
##  6 agate                    10
##  7 8mile                     9
##  8 canyon                    9
##  9 gibbon/mary               9
## 10 nezperce                  9
## # ℹ 28 more rows
```
…
