…
```r
?msleep
```

This data set was taken from the journal article "A quantitative, theoretical framework for understanding mammalian sleep" by V. M. Savage and G. B. West.

2. Store these data into a new data frame `sleep`.  

```r
sleep <- msleep
sleep
```

```
## # A tibble: 83 × 11
##    name   genus vore  order conservation sleep_total sleep_rem sleep_cycle awake
##    <chr>  <chr> <chr> <chr> <chr>              <dbl>     <dbl>       <dbl> <dbl>
##  1 Cheet… Acin… carni Carn… lc                  12.1      NA        NA      11.9
##  2 Owl m… Aotus omni  Prim… <NA>                17         1.8      NA       7  
##  3 Mount… Aplo… herbi Rode… nt                  14.4       2.4      NA       9.6
##  4 Great… Blar… omni  Sori… lc                  14.9       2.3       0.133   9.1
##  5 Cow    Bos   herbi Arti… domesticated         4         0.7       0.667  20  
##  6 Three… Brad… herbi Pilo… <NA>                14.4       2.2       0.767   9.6
##  7 North… Call… carni Carn… vu                   8.7       1.4       0.383  15.3
##  8 Vespe… Calo… <NA>  Rode… <NA>                 7        NA        NA      17  
##  9 Dog    Canis carni Carn… domesticated        10.1       2.9       0.333  13.9
## 10 Roe d… Capr… herbi Arti… lc                   3        NA        NA      21  
## # ℹ 73 more rows
## # ℹ 2 more variables: brainwt <dbl>, bodywt <dbl>
```
…
```
##  [1] "name"         "genus"        "vore"         "order"        "conservation"
##  [6] "sleep_total"  "sleep_rem"    "sleep_cycle"  "awake"        "brainwt"     
## [11] "bodywt"
```

6. How many herbivores are represented in the data?  

```r
herbivores <- filter(sleep, vore=="herbi")
herbivores
```

```
## # A tibble: 32 × 11
##    name   genus vore  order conservation sleep_total sleep_rem sleep_cycle awake
##    <chr>  <chr> <chr> <chr> <chr>              <dbl>     <dbl>       <dbl> <dbl>
##  1 Mount… Aplo… herbi Rode… nt                  14.4       2.4      NA       9.6
##  2 Cow    Bos   herbi Arti… domesticated         4         0.7       0.667  20  
##  3 Three… Brad… herbi Pilo… <NA>                14.4       2.2       0.767   9.6
##  4 Roe d… Capr… herbi Arti… lc                   3        NA        NA      21  
##  5 Goat   Capri herbi Arti… lc                   5.3       0.6      NA      18.7
##  6 Guine… Cavis herbi Rode… domesticated         9.4       0.8       0.217  14.6
##  7 Chinc… Chin… herbi Rode… domesticated        12.5       1.5       0.117  11.5
##  8 Tree … Dend… herbi Hyra… lc                   5.3       0.5      NA      18.7
##  9 Asian… Elep… herbi Prob… en                   3.9      NA        NA      20.1
## 10 Horse  Equus herbi Peri… domesticated         2.9       0.6       1      21.1
## # ℹ 22 more rows
## # ℹ 2 more variables: brainwt <dbl>, bodywt <dbl>
```

32 mammals in the data set are herbivores.

7. We are interested in two groups; small and large mammals. Let's define small as less than or equal to 19kg body weight and large as greater than or equal to 200kg body weight. Make two new dataframes (large and small) based on these parameters.

```r
#Creating the small mammal data frame
small <- filter(sleep, bodywt<=19)
small
```

```
## # A tibble: 59 × 11
##    name   genus vore  order conservation sleep_total sleep_rem sleep_cycle awake
##    <chr>  <chr> <chr> <chr> <chr>              <dbl>     <dbl>       <dbl> <dbl>
##  1 Owl m… Aotus omni  Prim… <NA>                17         1.8      NA       7  
##  2 Mount… Aplo… herbi Rode… nt                  14.4       2.4      NA       9.6
##  3 Great… Blar… omni  Sori… lc                  14.9       2.3       0.133   9.1
##  4 Three… Brad… herbi Pilo… <NA>                14.4       2.2       0.767   9.6
##  5 Vespe… Calo… <NA>  Rode… <NA>                 7        NA        NA      17  
##  6 Dog    Canis carni Carn… domesticated        10.1       2.9       0.333  13.9
##  7 Roe d… Capr… herbi Arti… lc                   3        NA        NA      21  
##  8 Guine… Cavis herbi Rode… domesticated         9.4       0.8       0.217  14.6
##  9 Grivet Cerc… omni  Prim… lc                  10         0.7      NA      14  
## 10 Chinc… Chin… herbi Rode… domesticated        12.5       1.5       0.117  11.5
## # ℹ 49 more rows
## # ℹ 2 more variables: brainwt <dbl>, bodywt <dbl>
```
…
