…
## `superhero_info`
3. Let's say we are only interested in the variables name, alignment, and "race". How would you isolate these variables from `superhero_info`?


```r
select(superhero_info, name, alignment, race)
```

```
## # A tibble: 734 × 3
##    name          alignment race             
##    <chr>         <chr>     <chr>            
##  1 A-Bomb        good      Human            
##  2 Abe Sapien    good      Icthyo Sapien    
##  3 Abin Sur      good      Ungaran          
##  4 Abomination   bad       Human / Radiation
##  5 Abraxas       bad       Cosmic Entity    
##  6 Absorbing Man bad       Human            
##  7 Adam Monroe   good      <NA>             
##  8 Adam Strange  good      Human            
##  9 Agent 13      good      <NA>             
## 10 Agent Bob     good      Human            
## # ℹ 724 more rows
```
…
11. Let's make a new variable that is the ratio of height to weight. Call this variable `height_weight_ratio`.    


```r
superhero_info %>%
  mutate(height_weight_ratio = height/weight) %>%
  select(name, height_weight_ratio) %>%
  arrange(desc(height_weight_ratio))
```

```
## # A tibble: 734 × 2
##    name            height_weight_ratio
##    <chr>                         <dbl>
##  1 Groot                        175.  
##  2 Galactus                      54.8 
##  3 Fin Fang Foom                 54.2 
##  4 Longshot                       5.22
##  5 Jack-Jack                      5.07
##  6 Rocket Raccoon                 4.88
##  7 Dash                           4.52
##  8 Howard the Duck                4.39
##  9 Swarm                          4.17
## 10 Yoda                           3.88
## # ℹ 724 more rows
```
…
## `superhero_powers`
Have a quick look at the `superhero_powers` data frame.  

13. How many superheros have a combination of agility, stealth, super_strength, stamina?


```r
superhero_powers %>%
  clean_names() %>%
  filter(agility == TRUE, stealth == TRUE, super_strength == TRUE, stamina == TRUE)
```

```
## # A tibble: 40 × 168
##    hero_names  agility accelerated_healing lantern_power_ring
##    <chr>       <lgl>   <lgl>               <lgl>             
##  1 Alex Mercer TRUE    TRUE                FALSE             
##  2 Angel       TRUE    TRUE                FALSE             
##  3 Ant-Man II  TRUE    FALSE               FALSE             
##  4 Aquaman     TRUE    TRUE                FALSE             
##  5 Batman      TRUE    FALSE               FALSE             
##  6 Black Flash TRUE    FALSE               FALSE             
##  7 Black Manta TRUE    FALSE               FALSE             
##  8 Brundlefly  TRUE    FALSE               FALSE             
##  9 Buffy       TRUE    TRUE                FALSE             
## 10 Cable       TRUE    TRUE                FALSE             
## # ℹ 30 more rows
## # ℹ 164 more variables: dimensional_awareness <lgl>, cold_resistance <lgl>,
## #   durability <lgl>, stealth <lgl>, energy_absorption <lgl>, flight <lgl>,
## #   danger_sense <lgl>, underwater_breathing <lgl>, marksmanship <lgl>,
## #   weapons_master <lgl>, power_augmentation <lgl>, animal_attributes <lgl>,
## #   longevity <lgl>, intelligence <lgl>, super_strength <lgl>,
## #   cryokinesis <lgl>, telepathy <lgl>, energy_armor <lgl>, …
```
…
